Ti,Factor Score
AMATA,0.994500
BANPU,2.326300
BCP,1.880800
BDMS,0.915400
BEC,1.036400
BGRIM,1.175000
BH,1.175000
BJC,0.706300
BTS,0.706300
CBG,2.053700
CCET,1.080300
CKP,0.772200
EA,0.877900
GL,1.126400
GLOBAL,1.281600
IVL,0.841600
IRPC,0.841600
KBANK,0.806400
KKP,1.405100
MEGA,1.475800
MINT,1.750700
PTT,1.644900
PTTGC,0.954200
RATCH,1.226500
SCB,1.340800
SAWAD,1.554800
SEAFCO,0.674500
SGP,0.841600
SPRC,0.841600
TASCO,0.841600
THAI,0.841600
TSC,0.841600